_id: req_c97bfbc8113547e6a206410c5c2d2020
type: Request
parentId: fld_64269fc78d244c74834811edf502778f
modified: 1637779297189
created: 1637774811187
url: "{{ _.baseUrl }}/api/posts?s=Ut"
name: index
description: >-
  # Descrição


  Retorna todos os posts cadastrados no banco de dados


  *Obs*: retorna em formato de paginação


  # Paramentros e filtros


  - cat: Busca posts por categoria `ex: /api/posts?cat=php`

  - s: Busca post pelo titulo `ex: /api/posts?s=TitleExample`

  - page: Muda a pagina `ex: /api/posts?page=2`

  - /{id do post} `ex: /api/posts/1`


  # Corpo da resposta( status:200 )

  [


      {
        "posts": {
          "current_page": 1,
          "data": [
            {
              "id": 2,
              "user_id": 1,
              "title": "Deserunt.",
              "content": "Odio autem error expedita error perspiciatis consequuntur. Aliquam qui illo beatae nulla sint tenetur sed. Ex vero molestiae est temporibus. Reiciendis sed dolor quo possimus ex minima.",
              "status": "published",
              "deleted_at": null,
              "created_at": "2021-11-23T23:29:34.000000Z",
              "updated_at": "2021-11-23T23:29:34.000000Z",
              "user": {
                "id": 1,
                "name": "Christop Koss III",
                "email": "owisoky@example.net",
                "email_verified_at": "2021-11-23T23:29:34.000000Z",
                "created_at": "2021-11-23T23:29:34.000000Z",
                "updated_at": "2021-11-23T23:29:34.000000Z"
              },
              "categories": []
            },
            {
              "id": 3,
              "user_id": 1,
              "title": "Voluptas.",
              "content": "Est et in aut qui. Fugiat sed nobis ipsa sunt omnis nihil expedita. Aliquam accusamus ipsa recusandae et provident aut dignissimos fugiat.",
              "status": "published",
              "deleted_at": null,
              "created_at": "2021-11-23T23:29:34.000000Z",
              "updated_at": "2021-11-23T23:29:34.000000Z",
              "user": {
                "id": 1,
                "name": "Christop Koss III",
                "email": "owisoky@example.net",
                "email_verified_at": "2021-11-23T23:29:34.000000Z",
                "created_at": "2021-11-23T23:29:34.000000Z",
                "updated_at": "2021-11-23T23:29:34.000000Z"
              },
              "categories": []
            },
            {
              "id": 4,
              "user_id": 1,
              "title": "Error in.",
              "content": "Et et est voluptatum velit. Est pariatur eaque rerum vero sapiente quam. Quas voluptas omnis voluptas ullam.",
              "status": "published",
              "deleted_at": null,
              "created_at": "2021-11-23T23:29:34.000000Z",
              "updated_at": "2021-11-23T23:29:34.000000Z",
              "user": {
                "id": 1,
                "name": "Christop Koss III",
                "email": "owisoky@example.net",
                "email_verified_at": "2021-11-23T23:29:34.000000Z",
                "created_at": "2021-11-23T23:29:34.000000Z",
                "updated_at": "2021-11-23T23:29:34.000000Z"
              },
              "categories": []
            },
            {
              "id": 5,
              "user_id": 1,
              "title": "Assumenda.",
              "content": "Quia odit sint amet quis fuga omnis autem. Excepturi necessitatibus sit et. Omnis incidunt a quam vitae eos ipsa. Repellat in necessitatibus eum.",
              "status": "published",
              "deleted_at": null,
              "created_at": "2021-11-23T23:29:34.000000Z",
              "updated_at": "2021-11-23T23:29:34.000000Z",
              "user": {
                "id": 1,
                "name": "Christop Koss III",
                "email": "owisoky@example.net",
                "email_verified_at": "2021-11-23T23:29:34.000000Z",
                "created_at": "2021-11-23T23:29:34.000000Z",
                "updated_at": "2021-11-23T23:29:34.000000Z"
              },
              "categories": []
            },
            {
              "id": 6,
              "user_id": 1,
              "title": "Sequi.",
              "content": "Veniam voluptatem delectus et fuga placeat perferendis. Dolor excepturi voluptate vel quia. Et dolore enim qui velit. Qui eos rerum est corrupti voluptatibus molestiae.",
              "status": "published",
              "deleted_at": null,
              "created_at": "2021-11-23T23:29:34.000000Z",
              "updated_at": "2021-11-23T23:29:34.000000Z",
              "user": {
                "id": 1,
                "name": "Christop Koss III",
                "email": "owisoky@example.net",
                "email_verified_at": "2021-11-23T23:29:34.000000Z",
                "created_at": "2021-11-23T23:29:34.000000Z",
                "updated_at": "2021-11-23T23:29:34.000000Z"
              },
              "categories": []
            }
          ],
          "first_page_url": "http:\/\/localhost\/api\/posts?page=1",
          "from": 1,
          "last_page": 2,
          "last_page_url": "http:\/\/localhost\/api\/posts?page=2",
          "links": [
            {
              "url": null,
              "label": "&laquo; Previous",
              "active": false
            },
            {
              "url": "http:\/\/localhost\/api\/posts?page=1",
              "label": "1",
              "active": true
            },
            {
              "url": "http:\/\/localhost\/api\/posts?page=2",
              "label": "2",
              "active": false
            },
            {
              "url": "http:\/\/localhost\/api\/posts?page=2",
              "label": "Next &raquo;",
              "active": false
            }
          ],
          "next_page_url": "http:\/\/localhost\/api\/posts?page=2",
          "path": "http:\/\/localhost\/api\/posts",
          "per_page": 5,
          "prev_page_url": null,
          "to": 5,
          "total": 9
        }
      }
  ]
method: GET
body: {}
parameters: []
headers: []
authentication: {}
metaSortKey: -1637774811187
isPrivate: false
settingStoreCookies: true
settingSendCookies: true
settingDisableRenderRequestBody: false
settingEncodeUrl: true
settingRebuildPath: true
settingFollowRedirects: global
